   5.398521787    
   5.405519251    
   5.412320431    
   5.418667672    
   5.417706222    
   5.408966435    
   5.405548346    
   5.405786143    
   5.398377556    
   5.398676861    
   5.389402305    
   5.389409753    
   5.389346939    
   5.384234816    
   5.383868974    
   5.384006617    
   5.384013626    
   5.384014016    
   5.384013998    
   5.384013924    
   5.384013904    
   5.384013895    
   5.384013908    
   5.384013923    
   5.384013937    
   5.384013925    
   5.384013938    
   5.384013938    
   5.384013940    
   5.384013941    
   5.384013940    
   5.384013942    
   5.384013941    
   5.384013944    
   5.384013941    
   5.384013943    
   5.384013943    
   5.384013943    
   5.384013943    
   5.384013943    
   5.384013943    
   5.384013944    
   5.384013943    
   5.384013944    
   5.384013944    
   5.384013944    
   5.384013944    
   5.384013943    
   5.384013943    
