 
 
Species :    1 (P), atom :    1
 
 approximate nuclear radius :   0.6081821256E-04
 number of mesh points to nuclear radius :    199
 density at nuclear center      :    2667.176713    
 density at nuclear surface     :    2385.112691    
 average contact charge density :    2424.749498    
 
 Thomson radius :   0.8132215303E-03
 number of mesh points to Thomson radius :    298
 contact magnetic moment (mu_B) :   0.1474603270    
 contact hyperfine field :   0.4507431459E-02
  tesla                  :    7.731396447    
 
 
Species :    1 (P), atom :    2
 
 approximate nuclear radius :   0.6081821256E-04
 number of mesh points to nuclear radius :    199
 density at nuclear center      :    2667.176713    
 density at nuclear surface     :    2385.112691    
 average contact charge density :    2424.749498    
 
 Thomson radius :   0.8132215303E-03
 number of mesh points to Thomson radius :    298
 contact magnetic moment (mu_B) :   0.1474603270    
 contact hyperfine field :   0.4507431459E-02
  tesla                  :    7.731396447    
 
 
Species :    1 (P), atom :    3
 
 approximate nuclear radius :   0.6081821256E-04
 number of mesh points to nuclear radius :    199
 density at nuclear center      :    2667.177028    
 density at nuclear surface     :    2385.112972    
 average contact charge density :    2424.749783    
 
 Thomson radius :   0.8132215303E-03
 number of mesh points to Thomson radius :    298
 contact magnetic moment (mu_B) :   0.1474125753    
 contact hyperfine field :   0.4505971829E-02
  tesla                  :    7.728892810    
 
 
Species :    1 (P), atom :    4
 
 approximate nuclear radius :   0.6081821256E-04
 number of mesh points to nuclear radius :    199
 density at nuclear center      :    2667.177028    
 density at nuclear surface     :    2385.112972    
 average contact charge density :    2424.749783    
 
 Thomson radius :   0.8132215303E-03
 number of mesh points to Thomson radius :    298
 contact magnetic moment (mu_B) :   0.1474125753    
 contact hyperfine field :   0.4505971829E-02
  tesla                  :    7.728892810    
 
 
Species :    2 (Mn), atom :    1
 
 approximate nuclear radius :   0.7074591925E-04
 number of mesh points to nuclear radius :    264
 density at nuclear center      :    17417.77162    
 density at nuclear surface     :    13157.65069    
 average contact charge density :    14142.49048    
 
 Thomson radius :   0.1334953587E-02
 number of mesh points to Thomson radius :    401
 contact magnetic moment (mu_B) :   0.4357726290    
 contact hyperfine field :   0.1332029636E-01
  tesla                  :    22.84771114    
 
 
Species :    2 (Mn), atom :    2
 
 approximate nuclear radius :   0.7074591925E-04
 number of mesh points to nuclear radius :    264
 density at nuclear center      :    17417.77162    
 density at nuclear surface     :    13157.65069    
 average contact charge density :    14142.49048    
 
 Thomson radius :   0.1334953587E-02
 number of mesh points to Thomson radius :    401
 contact magnetic moment (mu_B) :   0.4357726290    
 contact hyperfine field :   0.1332029636E-01
  tesla                  :    22.84771114    
 
 
Species :    2 (Mn), atom :    3
 
 approximate nuclear radius :   0.7074591925E-04
 number of mesh points to nuclear radius :    264
 density at nuclear center      :    17417.77159    
 density at nuclear surface     :    13157.65069    
 average contact charge density :    14142.49048    
 
 Thomson radius :   0.1334953587E-02
 number of mesh points to Thomson radius :    401
 contact magnetic moment (mu_B) :   0.4358848157    
 contact hyperfine field :   0.1332372558E-01
  tesla                  :    22.85359313    
 
 
Species :    2 (Mn), atom :    4
 
 approximate nuclear radius :   0.7074591925E-04
 number of mesh points to nuclear radius :    264
 density at nuclear center      :    17417.77159    
 density at nuclear surface     :    13157.65069    
 average contact charge density :    14142.49048    
 
 Thomson radius :   0.1334953587E-02
 number of mesh points to Thomson radius :    401
 contact magnetic moment (mu_B) :   0.4358848157    
 contact hyperfine field :   0.1332372558E-01
  tesla                  :    22.85359313    
