 -0.3121931070E-16
  0.9932638662E-16
  0.2919875593E-15
  0.6020450156E-15
  0.6018606411E-15
  0.6422220052E-15
  0.2331090886E-15
 -0.3279107672E-15
 -0.1524002365E-15
  0.6022938512E-15
  0.2351562161E-15
  0.3872756770E-15
  0.3382979574E-15
  0.2227187287E-16
  0.4523581537E-15
 -0.4208738757E-15
  0.6661527708E-16
 -0.2813583223E-15
