 
 
Species :    1 (Mn), atom :    1
 
 approximate nuclear radius :   0.7074591925E-04
 number of mesh points to nuclear radius :    264
 density at nuclear center      :    17414.04789    
 density at nuclear surface     :    13159.69151    
 average contact charge density :    13696.35244    
 
 Thomson radius :   0.1341552588E-02
 number of mesh points to Thomson radius :    402
 contact magnetic moment (mu_B) :    1.396880514    
 contact hyperfine field :   0.4269855699E-01
  tesla                  :    73.23893326    
 
 
Species :    1 (Mn), atom :    2
 
 approximate nuclear radius :   0.7074591925E-04
 number of mesh points to nuclear radius :    264
 density at nuclear center      :    17414.04789    
 density at nuclear surface     :    13159.69151    
 average contact charge density :    13696.35244    
 
 Thomson radius :   0.1341552588E-02
 number of mesh points to Thomson radius :    402
 contact magnetic moment (mu_B) :    1.396880514    
 contact hyperfine field :   0.4269855699E-01
  tesla                  :    73.23893326    
 
 
Species :    2 (F), atom :    1
 
 approximate nuclear radius :   0.5278478738E-04
 number of mesh points to nuclear radius :    142
 density at nuclear center      :    476.8659887    
 density at nuclear surface     :    464.2209968    
 average contact charge density :    477.1388549    
 
 Thomson radius :   0.4834748350E-03
 number of mesh points to Thomson radius :    207
 contact magnetic moment (mu_B) :   0.6689020401E-01
 contact hyperfine field :   0.2044638148E-02
  tesla                  :    3.507076759    
 
 
Species :    2 (F), atom :    2
 
 approximate nuclear radius :   0.5278478738E-04
 number of mesh points to nuclear radius :    142
 density at nuclear center      :    476.8659887    
 density at nuclear surface     :    464.2209968    
 average contact charge density :    477.1388549    
 
 Thomson radius :   0.4834748350E-03
 number of mesh points to Thomson radius :    207
 contact magnetic moment (mu_B) :   0.6689020401E-01
 contact hyperfine field :   0.2044638148E-02
  tesla                  :    3.507076759    
 
 
Species :    2 (F), atom :    3
 
 approximate nuclear radius :   0.5278478738E-04
 number of mesh points to nuclear radius :    142
 density at nuclear center      :    476.8659887    
 density at nuclear surface     :    464.2209968    
 average contact charge density :    477.1388549    
 
 Thomson radius :   0.4834748350E-03
 number of mesh points to Thomson radius :    207
 contact magnetic moment (mu_B) :   0.6689020401E-01
 contact hyperfine field :   0.2044638148E-02
  tesla                  :    3.507076759    
 
 
Species :    2 (F), atom :    4
 
 approximate nuclear radius :   0.5278478738E-04
 number of mesh points to nuclear radius :    142
 density at nuclear center      :    476.8659887    
 density at nuclear surface     :    464.2209968    
 average contact charge density :    477.1388549    
 
 Thomson radius :   0.4834748350E-03
 number of mesh points to Thomson radius :    207
 contact magnetic moment (mu_B) :   0.6689020401E-01
 contact hyperfine field :   0.2044638148E-02
  tesla                  :    3.507076759    
