   2.226430144    
   2.213207759    
   2.219694622    
   2.235480574    
   2.245862311    
   2.270036650    
   2.265858903    
   2.263618356    
   2.260943077    
   2.259490693    
   2.259066848    
   2.258254117    
   2.257990066    
   2.257447421    
   2.257138879    
   2.257126360    
