    -6538.58782630    
    -6539.41831246    
    -6539.81768201    
    -6548.34002630    
    -6507.67701607    
    -6508.36497925    
    -6508.02787899    
    -6522.85248163    
    -6517.61590077    
    -6518.60295785    
    -6518.04845977    
    -6518.60558558    
    -6518.45912716    
    -6518.45798585    
    -6518.45827218    
    -6518.46099694    
    -6518.46236068    
    -6518.46256290    
    -6518.46242981    
    -6518.46229541    
    -6518.46225593    
    -6518.46223952    
    -6518.46225155    
    -6518.46224727    
